Project 1
…
hcpluspop %>% select(STATE_NAME, OFFENDER_RACE, BIAS_DESC, REGION_NAME, OFFENSE_NAME, TOT_POP)%>% group_by(OFFENSE_NAME) %>% summarize(n=n())%>%mutate(prop_tc_off_name=n/sum(n))

## # A tibble: 104 x 3
##    OFFENSE_NAME                                               n prop_tc_off_name
##    <fct>                                                  <int>            <dbl>
##  1 Aggravated Assault                                       708         0.0991  
##  2 Aggravated Assault;Arson                                   1         0.000140
##  3 Aggravated Assault;Burglary/Breaking & Entering            2         0.000280
##  4 Aggravated Assault;Burglary/Breaking & Entering;Destr~     1         0.000140
##  5 Aggravated Assault;Destruction/Damage/Vandalism of Pr~    18         0.00252 
##  6 Aggravated Assault;Destruction/Damage/Vandalism of Pr~     3         0.000420
##  7 Aggravated Assault;Destruction/Damage/Vandalism of Pr~     1         0.000140
##  8 Aggravated Assault;Intimidation                           12         0.00168 
##  9 Aggravated Assault;Larceny-theft                           2         0.000280
## 10 Aggravated Assault;Murder and Nonnegligent Manslaught~     1         0.000140
## # ... with 94 more rows
…
